{
	"id":"707feodnsT01fac890",
	"name":"HTML",
	"description": "Learn the basics of coding",
	"price": 1000,
	"isActive": true,
	"slots": 20,
	"enrollees":["2017fb003GhLkad1482"],
	"dateTimeCreated": "2020-03-10T1515:00:00.00Z"
};


{
	"id":"707feodnsT01fac897",
	"name":"CSS",
	"description": "Learn the basics of styling",
	"price": 1000,
	"isActive": false,
	"slots": 20,
	"enrollees":["856asdfenFt13oi"],
	"dateTimeCreated": "2020-03-10T1515:00:00.00Z"
};


{
	"id":"707feodnsT01fac891",
	"name":"Javascript",
	"description": "Learn the basics of coding",
	"price": 1000,
	"isActive": true,
	"slots": 20,
	"enrollees":[],
	"dateTimeCreated": "2020-03-10T1515:00:00.00Z"
};